<?xml version="1.0" encoding="UTF-8"?>
<session version="1.0">
<refactoring comment="Delete resource &apos;ABC&apos;" deleteContents="false" description="Delete resource &apos;ABC&apos;" element1="/ABC" flags="7" id="org.eclipse.ltk.core.refactoring.delete.resources" resources="1" stamp="1400871918237"/>
</session>