<?xml version="1.0" encoding="UTF-8"?>
<session version="1.0">
<refactoring comment="Rename Java project &apos;BadStyle&apos; to &apos;GoodStyle&apos;&#x0D;&#x0A;- Original element: &apos;BadStyle&apos;&#x0D;&#x0A;- Renamed element: &apos;BadStyle&apos;&#x0D;&#x0A;- Update references to refactored element" description="Rename Java project &apos;BadStyle&apos;" flags="7" id="org.eclipse.jdt.ui.rename.java.project" input="=BadStyle" name="GoodStyle" references="true" stamp="1381352714777" version="1.0"/>
</session>