<?xml version="1.0" encoding="UTF-8"?>
<session version="1.0">
<refactoring comment="Delete resource &apos;Assembly IDE&apos;" deleteContents="true" description="Delete resource &apos;Assembly IDE&apos;" element1="/Assembly IDE" flags="7" id="org.eclipse.ltk.core.refactoring.delete.resources" resources="1" stamp="1393350309236"/>
</session>