<?xml version="1.0" encoding="UTF-8"?>
<session version="1.0">
<refactoring comment="Copy element &apos;rightshoe.gif&apos; to &apos;ch7Test&apos;&#x0D;&#x0A;- Original project: &apos;DanceStudio&apos;&#x0D;&#x0A;- Destination element: &apos;ch7Test&apos;&#x0D;&#x0A;- Original element: &apos;rightshoe.gif&apos;" description="Copy file" destination="=ch7Test" element1="rightshoe.gif" files="1" flags="589830" folders="0" id="org.eclipse.jdt.ui.copy" policy="org.eclipse.jdt.ui.copyResources" stamp="1386612626688" units="0" version="1.0"/>
</session>