<?xml version="1.0" encoding="UTF-8"?>
<session version="1.0">
<refactoring comment="Rename type &apos;badstyle&apos; to &apos;GoodStyle&apos;&#x0D;&#x0A;- Original project: &apos;BadStyle&apos;&#x0D;&#x0A;- Original element: &apos;badstyle&apos;&#x0D;&#x0A;- Renamed element: &apos;GoodStyle&apos;&#x0D;&#x0A;- Update references to refactored element&#x0D;&#x0A;- Update textual occurrences in comments and strings" description="Rename type &apos;badstyle&apos;" flags="589830" id="org.eclipse.jdt.ui.rename.type" input="/src&lt;{badstyle.java[badstyle" matchStrategy="1" name="GoodStyle" qualified="false" references="true" similarDeclarations="false" stamp="1381352700062" textual="false" version="1.0"/>
</session>