<?xml version="1.0" encoding="UTF-8"?>
<session version="1.0">
<refactoring accessors="true" comment="Delete element from project &apos;Calculator&apos;&#x0D;&#x0A;- Original project: &apos;Calculator&apos;&#x0D;&#x0A;- Original element: &apos;CalcMain.java&apos;" description="Delete element" element1="CalcMain.java" elements="0" flags="589830" id="org.eclipse.jdt.ui.delete" resources="1" stamp="1379047304566" subPackages="false" version="1.0"/>
</session>